[gd_scene load_steps=2 format=2]

[ext_resource path="res://scripts/GUIData.cs" type="Script" id=1]

[node name="GUIData" type="Node"]
script = ExtResource( 1 )

[node name="MessageKillTimer" type="Timer" parent="."]
one_shot = true

[connection signal="timeout" from="MessageKillTimer" to="." method="OnMessageKillTimerTimeout"]
