[gd_scene load_steps=8 format=2]

[ext_resource path="res://scripts/Mob.cs" type="Script" id=1]
[ext_resource path="res://sprites/MobLevel0.tres" type="SpriteFrames" id=2]
[ext_resource path="res://scenes/Health.tscn" type="PackedScene" id=3]
[ext_resource path="res://scenes/DynamicCollision.tscn" type="PackedScene" id=4]
[ext_resource path="res://scenes/Inventory.tscn" type="PackedScene" id=5]
[ext_resource path="res://scenes/Targeting.tscn" type="PackedScene" id=6]

[sub_resource type="RectangleShape2D" id=1]
extents = Vector2( 32, 32 )

[node name="Mob" type="KinematicBody2D" groups=["mobs"]]
collision_layer = 8
collision_mask = 6
collision/safe_margin = 0.001
script = ExtResource( 1 )

[node name="MainCollisionShape" type="CollisionShape2D" parent="."]
shape = SubResource( 1 )

[node name="FriendlyCollision" parent="." instance=ExtResource( 4 )]
collision_layer = 6
collision_mask = 6
CollisionGroup = "friendly"
CollideCallback = "FriendlyCollision"

[node name="AnimatedSprite" type="AnimatedSprite" parent="."]
frames = ExtResource( 2 )
animation = "down"

[node name="Health" parent="." instance=ExtResource( 3 )]
margin_left = -32.0
margin_top = 32.0
margin_right = 32.0
margin_bottom = 43.0

[node name="Inventory" parent="." instance=ExtResource( 5 )]

[node name="Targeting" parent="." instance=ExtResource( 6 )]
TargetMethod = "player"
