[gd_scene load_steps=3 format=2]

[ext_resource path="res://scripts/PlayerStats.cs" type="Script" id=1]
[ext_resource path="res://scenes/Inventory.tscn" type="PackedScene" id=2]

[node name="PlayerStats" type="Node"]
script = ExtResource( 1 )

[node name="Inventory" parent="." instance=ExtResource( 2 )]

[connection signal="UpdateBackpack" from="Inventory" to="." method="OnInventoryUpdateBackpack"]
[connection signal="UpdateBackpackSize" from="Inventory" to="." method="OnInventoryUpdateBackpackSize"]
[connection signal="UpdateCircuitry" from="Inventory" to="." method="OnInventoryUpdateCircuitry"]
[connection signal="UpdateCred" from="Inventory" to="." method="OnInventoryUpdateCred"]
[connection signal="UpdateEnergy" from="Inventory" to="." method="OnInventoryUpdateEnergy"]
[connection signal="UpdateMetal" from="Inventory" to="." method="OnInventoryUpdateMetal"]
