[gd_scene load_steps=6 format=2]

[ext_resource path="res://assets/fonts/Xolonium-Regular.ttf" type="DynamicFontData" id=1]
[ext_resource path="res://sprites/Item.tres" type="Texture" id=2]
[ext_resource path="res://scripts/ShopItem.cs" type="Script" id=3]

[sub_resource type="DynamicFont" id=1]
size = 9
extra_spacing_top = -2
extra_spacing_bottom = -2
font_data = ExtResource( 1 )

[sub_resource type="DynamicFont" id=2]
size = 9
font_data = ExtResource( 1 )

[node name="ShopItem" type="Button"]
margin_right = 64.0
margin_bottom = 64.0
flat = true
script = ExtResource( 3 )
__meta__ = {
"_edit_use_anchors_": false
}

[node name="ItemSprite" type="Sprite" parent="."]
position = Vector2( 32, 36 )
scale = Vector2( 0.5, 0.5 )
texture = ExtResource( 2 )
region_enabled = true
region_rect = Rect2( 448, 192, 64, 64 )

[node name="ItemName" type="Label" parent="."]
anchor_right = 1.0
margin_bottom = 19.0
grow_horizontal = 2
custom_fonts/font = SubResource( 1 )
text = "Item"
align = 1
valign = 2
autowrap = true
__meta__ = {
"_edit_use_anchors_": false
}

[node name="ItemCost" type="Label" parent="."]
anchor_top = 1.0
anchor_right = 1.0
anchor_bottom = 1.0
margin_top = -12.0
grow_horizontal = 2
grow_vertical = 0
custom_fonts/font = SubResource( 2 )
text = "100"
align = 1
valign = 1
clip_text = true
__meta__ = {
"_edit_use_anchors_": false
}

[connection signal="pressed" from="." to="." method="OnShopItemPressed"]
