[gd_scene load_steps=4 format=2]

[ext_resource path="res://sprites/Tower.tres" type="SpriteFrames" id=1]
[ext_resource path="res://scenes/Building.tscn" type="PackedScene" id=2]
[ext_resource path="res://scripts/buildings/Tower.cs" type="Script" id=3]

[node name="Tower" instance=ExtResource( 2 )]
position = Vector2( -40, -24 )
script = ExtResource( 3 )
Attack = 10
MaxHP = 25
BuildTime = 10
DestroyTime = 5
Metal = 50
Circuitry = 100
Energy = 25

[node name="MobCollision" parent="." index="1"]
Aura = 128
AuraShape = "Circle"
BeforeCallback = "MobCollisionBefore"
AfterCallback = "MobCollisionAfter"

[node name="PlayerCollision" parent="." index="2"]
Aura = 0
CollisionGroup = ""
CollideCallback = ""

[node name="AnimatedSprite" parent="." index="4"]
frames = ExtResource( 1 )
