[gd_scene load_steps=3 format=2]

[ext_resource path="res://scenes/Mob.tscn" type="PackedScene" id=1]
[ext_resource path="res://sprites/MobLevel1.tres" type="SpriteFrames" id=2]

[node name="MobLevel1" instance=ExtResource( 1 )]
Speed = 100
Power = 10
Attack = 10
MaxHP = 10
Metal = 10
Circuitry = 5
Energy = 5
Cred = 20

[node name="AnimatedSprite" parent="." index="2"]
frames = ExtResource( 2 )
frame = 2
playing = true
